#解锁及升级所消耗的技能点（开头这列的0代表解锁，后面每一列的数字代表第几次升级）,,,,,,,,,,,,,,,,,
0,1,2,3,4,5,6,7,8,9,10,,,,,,,
10,1,2,3,5,7,10,10,10,10,10,,,,,,,
#天赋路线1的配置：本线主打“赛道增收”功能。老规矩，用“星球编号_赛道编号”的关键字来指定赛道；“-1”表示所有赛道,,,,,,,,,,,,,,,,,
单条赛道增收数值初始,每次升级提升,描述,所有赛道增收数值初始,每次升级提升,描述,,,,,,,,,,,,
0.4,0.03,{0}{1}增收{2}%,0.2,0.02,所有赛道增收{0}%,,,,,,,,,,,,
0_0,0_1,0_2,0_3,0_4, -1_-1,1_0,1_1,1_2,1_3,1_4, -1_-1,2_0,2_1,2_2,2_3,2_4, -1_-1
#天赋路线2的配置：节点功能类型： 0 - 能源研究速度增加  1 - 广告加成效果持续时间增加  2 - 能源研究花费降低  3 - 赛道重生花费降低  4 - 广告加成效果提升 5 - 广告最大总时间提升  6 - 闲置收益收取时的加成  ,,,,,,,,,,,,,,,,,
0型功能的描述,1型功能的描述,2型功能的描述,3型功能的描述,4型功能的描述,5型功能的描述,6型功能的描述,,,,,,,,,,,
能源研究速度提升{0},广告效果持续时间增加{0},能源研究花费降低{0},赛道重生花费降低{0},广告加成效果提升{0},广告总时间提升{0},闲置收益收取时的提升{0},,,,,,,,,,,
0_0.2_0.02,1_0.15_0.015,2_0.2_0.02,5_0.15_0.015,3_0.15_0.015,4_0.2_0.02,0_0.15_0.015,1_0.1_0.01,2_0.15_0.015,5_0.1_0.01,3_0.1_0.01,6_0.5_0.05,,,,,,
#天赋路线3的相关配置。节点功能类型 0 - A类管理员额外提升移动速度 1 - B类管理员额外提升载具收益 2 - C类管理员额外获得收益  3 - D类管理员购买载具折上折 4 - 购买管理员花费降低  5 - 管理员技能持续时间增加 6  - 管理员技能冷却时间缩短  7 - 额外增加两跑道两架载具容量,,,,,,,,,,,,,,,,,
0_0.5_0.05,1_1_0.05,2_0.1_0.01,3_0.1_0.01,4_0.4_0.02,5_0.5_0.05,6_0.2_0.01,7_0_0,,,,,,,,,,
主管技能额外提升移动速度 {0},主管技能额外提升赛道收益{0},主管技能额外提升瞬间收益{0},主管技能额外折扣{0},购买管理员花费降低{0},管理员技能持续时间增加{0},管理员技能冷却时间缩{0}, 额外增加跑道两架载具容量,,,,,,,,,,
