%YAML 1.1
%TAG !u! tag:unity3d.com,2011:
--- !u!1001 &100100000
Prefab:
  m_ObjectHideFlags: 1
  serializedVersion: 2
  m_Modification:
    m_TransformParent: {fileID: 0}
    m_Modifications: []
    m_RemovedComponents: []
  m_SourcePrefab: {fileID: 0}
  m_RootGameObject: {fileID: 1727163199075210}
  m_IsPrefabAsset: 1
--- !u!1 &1727163199075210
GameObject:
  m_ObjectHideFlags: 0
  m_CorrespondingSourceObject: {fileID: 0}
  m_PrefabInternal: {fileID: 100100000}
  serializedVersion: 6
  m_Component:
  - component: {fileID: 4019124746328992}
  - component: {fileID: 114943643985311486}
  - component: {fileID: 114551247595936348}
  m_Layer: 0
  m_Name: prefabFrame
  m_TagString: Untagged
  m_Icon: {fileID: 0}
  m_NavMeshLayer: 0
  m_StaticEditorFlags: 0
  m_IsActive: 1
--- !u!4 &4019124746328992
Transform:
  m_ObjectHideFlags: 1
  m_CorrespondingSourceObject: {fileID: 0}
  m_PrefabInternal: {fileID: 100100000}
  m_GameObject: {fileID: 1727163199075210}
  m_LocalRotation: {x: -0.9659258, y: 0.25881913, z: -0.000000026077034, w: -0.0000000018626454}
  m_LocalPosition: {x: -0, y: 0, z: 0.6780393}
  m_LocalScale: {x: 1, y: 1, z: 1}
  m_Children: []
  m_Father: {fileID: 0}
  m_RootOrder: 0
  m_LocalEulerAnglesHint: {x: 0, y: 0, z: 0}
--- !u!114 &114551247595936348
MonoBehaviour:
  m_ObjectHideFlags: 1
  m_CorrespondingSourceObject: {fileID: 0}
  m_PrefabInternal: {fileID: 100100000}
  m_GameObject: {fileID: 1727163199075210}
  m_Enabled: 1
  m_EditorHideFlags: 0
  m_Script: {fileID: 11500000, guid: 5f742ccbd25717e438dd6fdea4d66bad, type: 3}
  m_Name: 
  m_EditorClassIdentifier: 
  TrailData:
    TrailMaterial: {fileID: 2100000, guid: 2c45238b0e8e5b443a693d7c92c89d3e, type: 2}
    Lifetime: 0.17
    UsingSimpleSize: 0
    SimpleSizeOverLifeStart: 0
    SimpleSizeOverLifeEnd: 0
    SizeOverLife:
      serializedVersion: 2
      m_Curve:
      - serializedVersion: 3
        time: 0.05833435
        value: 0.21499863
        inSlope: 0
        outSlope: 0
        tangentMode: 0
        weightedMode: 0
        inWeight: 0.33333334
        outWeight: 0.33333334
      - serializedVersion: 3
        time: 1
        value: 0
        inSlope: 0
        outSlope: 0
        tangentMode: 0
        weightedMode: 0
        inWeight: 0.33333334
        outWeight: 0.33333334
      m_PreInfinity: 2
      m_PostInfinity: 2
      m_RotationOrder: 4
    UsingSimpleColor: 0
    SimpleColorOverLifeStart: {r: 0, g: 0, b: 0, a: 0}
    SimpleColorOverLifeEnd: {r: 0, g: 0, b: 0, a: 0}
    ColorOverLife:
      serializedVersion: 2
      key0: {r: 0.9490196, g: 0.36862746, b: 0.105882354, a: 1}
      key1: {r: 1, g: 0.80784315, b: 0, a: 1}
      key2: {r: 0, g: 0.25490198, b: 1, a: 0}
      key3: {r: 0, g: 0, b: 0, a: 0}
      key4: {r: 0, g: 0, b: 0, a: 0}
      key5: {r: 0, g: 0, b: 0, a: 0}
      key6: {r: 0, g: 0, b: 0, a: 0}
      key7: {r: 0, g: 0, b: 0, a: 0}
      ctime0: 386
      ctime1: 65535
      ctime2: 65535
      ctime3: 0
      ctime4: 0
      ctime5: 0
      ctime6: 0
      ctime7: 0
      atime0: 0
      atime1: 65535
      atime2: 65535
      atime3: 0
      atime4: 0
      atime5: 0
      atime6: 0
      atime7: 0
      m_Mode: 0
      m_NumColorKeys: 2
      m_NumAlphaKeys: 2
    StretchSizeToFit: 0
    StretchColorToFit: 0
    MaterialTileLength: 0
    UseForwardOverride: 0
    ForwardOverride: {x: -1, y: 0, z: 0}
    ForwardOverrideRelative: 1
  Emit: 1
  MinVertexDistance: 0.1
  MaxNumberOfPoints: 50
--- !u!114 &114943643985311486
MonoBehaviour:
  m_ObjectHideFlags: 1
  m_CorrespondingSourceObject: {fileID: 0}
  m_PrefabInternal: {fileID: 100100000}
  m_GameObject: {fileID: 1727163199075210}
  m_Enabled: 0
  m_EditorHideFlags: 0
  m_Script: {fileID: 11500000, guid: 98335f20237e3de42a9f0b6415312e23, type: 3}
  m_Name: 
  m_EditorClassIdentifier: 
  TrailData:
    TrailMaterial: {fileID: 2100000, guid: a6c0d0c41df93a243b0e594e935d9a86, type: 2}
    Lifetime: 0.01
    UsingSimpleSize: 0
    SimpleSizeOverLifeStart: 0
    SimpleSizeOverLifeEnd: 0
    SizeOverLife:
      serializedVersion: 2
      m_Curve:
      - serializedVersion: 3
        time: 0
        value: 0.32
        inSlope: 0
        outSlope: 0
        tangentMode: 0
        weightedMode: 0
        inWeight: 0.33333334
        outWeight: 0.33333334
      - serializedVersion: 3
        time: 0.12504676
        value: 0.32065296
        inSlope: -0.98705214
        outSlope: -0.98705214
        tangentMode: 0
        weightedMode: 0
        inWeight: 0.33333334
        outWeight: 0.33333334
      - serializedVersion: 3
        time: 1
        value: 0
        inSlope: -0.2667043
        outSlope: -0.2667043
        tangentMode: 0
        weightedMode: 0
        inWeight: 0.33333334
        outWeight: 0.33333334
      m_PreInfinity: 2
      m_PostInfinity: 2
      m_RotationOrder: 4
    UsingSimpleColor: 0
    SimpleColorOverLifeStart: {r: 0, g: 0, b: 0, a: 0}
    SimpleColorOverLifeEnd: {r: 0, g: 0, b: 0, a: 0}
    ColorOverLife:
      serializedVersion: 2
      key0: {r: 0.9433962, g: 0.57174474, b: 0.30704877, a: 1}
      key1: {r: 1, g: 0, b: 0, a: 0}
      key2: {r: 1, g: 0.9137255, b: 0, a: 0}
      key3: {r: 0, g: 0, b: 0, a: 0}
      key4: {r: 0, g: 0, b: 0, a: 0}
      key5: {r: 0, g: 0, b: 0, a: 0}
      key6: {r: 0, g: 0, b: 0, a: 0}
      key7: {r: 0, g: 0, b: 0, a: 0}
      ctime0: 0
      ctime1: 65535
      ctime2: 65535
      ctime3: 0
      ctime4: 0
      ctime5: 0
      ctime6: 0
      ctime7: 0
      atime0: 0
      atime1: 65535
      atime2: 65535
      atime3: 0
      atime4: 0
      atime5: 0
      atime6: 0
      atime7: 0
      m_Mode: 0
      m_NumColorKeys: 2
      m_NumAlphaKeys: 2
    StretchSizeToFit: 0
    StretchColorToFit: 0
    MaterialTileLength: 1
    UseForwardOverride: 1
    ForwardOverride: {x: -1, y: 0, z: 0}
    ForwardOverrideRelative: 1
  Emit: 1
  MinVertexDistance: 0.1
  MaxNumberOfPoints: 50
  RandomForceScale: 0.1
