%YAML 1.1
%TAG !u! tag:unity3d.com,2011:
--- !u!114 &11400000
MonoBehaviour:
  m_ObjectHideFlags: 0
  m_CorrespondingSourceObject: {fileID: 0}
  m_PrefabInstance: {fileID: 0}
  m_PrefabAsset: {fileID: 0}
  m_GameObject: {fileID: 0}
  m_Enabled: 1
  m_EditorHideFlags: 0
  m_Script: {fileID: 11500000, guid: a6b194f808b1af6499c93410e504af42, type: 3}
  m_Name: jbt_Atlas
  m_EditorClassIdentifier: 
  atlasFile: {fileID: 4900000, guid: 4c537d306ad904c6bb5bb56c319ae7a7, type: 3}
  materials:
  - {fileID: 2100000, guid: 377cb0c73f9a248ec907679e71073805, type: 2}
